-------------------------------------------------------------------------------
Test set: com.epam.AssociatesServiceTest
-------------------------------------------------------------------------------
Tests run: 6, Failures: 0, Errors: 0, Skipped: 0, Time elapsed: 1.035 s - in com.epam.AssociatesServiceTest
